{
  "simulator": {
    "cycle_time": 1000,  // picoseconds
    "print_progress": true,
    "print_interval": 1.0,  // seconds
    "random_seed": 12345678
  },
  "network": {
    "topology": "butterfly",
    "num_vcs": 4,
    "stages": 5,
    "internal_channel": {
      "latency": 1  // cycles
    },
    "external_channel": {
      "latency": 1  // cycles
    },
    "channel_log": {
      "file": "./out/channels.csv"  // "channels.csv"
    },
    "routing": {
      "algorithm": "destination_tag",
      "latency": 1  // cycles
    },
    "interface": {
      "type": "standard",
      "fixed_msg_vc": false,
      "crossbar_scheduler": {
        "allocator": {
          "type": "r_separable",
          "slip_latch": true,
          "resource_arbiter": {
            "type": "comparing",
            "greater": false
          }
        },
        "packet_lock": true,
        "idle_unlock": false
      },
      "init_credits": 16,
      "crossbar": {
        "latency": 1  // cycles
      }
    },
    "router": {
      "architecture": "input_queued",
      "num_ports": 6,
      "congestion_status": {
        "latency": 1
      },
      "input_queue_depth": 16,
      "vca_swa_wait": true,
      "crossbar": {
        "latency": 1  // cycles
      },
      "vc_scheduler": {
        "allocator": {
          "type": "rc_separable",
          "slip_latch": true,
          "iterations": 1,
          "resource_arbiter": {
            "type": "comparing",
            "greater": false
          },
          "client_arbiter": {
            "type": "lslp"
          }
        }
      },
      "crossbar_scheduler": {
        "allocator": {
          "type": "r_separable",
          "slip_latch": true,
          "resource_arbiter": {
            "type": "comparing",
            "greater": false
          }
        },
        "packet_lock": true,
        "idle_unlock": false
      }
    }
  },
  "application": {
    "type": "netrace_test",
    "max_injection_rate": -1,  // infinite injection rate
    "bytes_per_flit": 4,
    "max_packet_size": 16,  // flits
    "trace_file": "../../netrace-1.0/testraces/example.tra.bz2",
    "mem_ctrl_latency":50,
    "NetraceTerminal": "bla",
    "ignore_dependencies": false,
    "message_log": {
      "file": "./out/messages.mpf"  // "data.mpf.gz"
    },
    "rate_log": {
      "file": "./out/rates.csv"  // "rates.csv"
    }
  },
  "metadata_handler": {
    "type": "zero"
  },
  "debug": []
}